Repeated Measures ANOVA in R • Nathaniel Woodward
…
You can see from the tabulation that every level of factor A has an observation for each student (thus, it is fully within-subjects), while factor B does not (students are either in one level of factor B or the other, making it a between-subjects variable).

data<-data%>%mutate(grand_mean=mean(Y))%>%
  group_by(factorA,factorB)%>%mutate(meanAB=mean(Y))%>%ungroup()%>%
  group_by(factorA)%>%mutate(meanA=mean(Y))%>%ungroup()%>%  
  group_by(factorB)%>%mutate(meanB=mean(Y))%>%ungroup()%>%
  group_by(subj)%>%mutate(subj_mean=mean(Y))%>%
  ungroup()

data

## # A tibble: 24 x 9
##    subj  factorA factorB     Y grand_mean meanAB meanA meanB subj_mean
##    <fct> <fct>   <fct>   <dbl>      <dbl>  <dbl> <dbl> <dbl>     <dbl>
##  1 S1    A1      B1         31         25   31.8  27.5  28.8        30
##  2 S2    A1      B1         33         25   31.8  27.5  28.8        27
##  3 S3    A1      B1         28         25   31.8  27.5  28.8        25
##  4 S4    A1      B1         35         25   31.8  27.5  28.8        33
##  5 S5    A1      B2         27         25   23.2  27.5  21.2        24
##  6 S6    A1      B2         22         25   23.2  27.5  21.2        21
##  7 S7    A1      B2         20         25   23.2  27.5  21.2        18
##  8 S8    A1      B2         24         25   23.2  27.5  21.2        22
##  9 S1    A2      B1         30         25   29.2  26.2  28.8        30
## 10 S2    A2      B1         28         25   29.2  26.2  28.8        27
## # … with 14 more rows
…
First, let’s get our means.

data<-data%>%mutate(grand_mean=mean(Y))%>%
  group_by(factorA,factorB)%>%mutate(meanAB=mean(Y))%>%ungroup()%>%
  group_by(factorA,subj)%>%mutate(meanAsubj=mean(Y))%>%ungroup()%>%
  group_by(factorB,subj)%>%mutate(meanBsubj=mean(Y))%>%ungroup()%>%
  group_by(factorA)%>%mutate(meanA=mean(Y))%>%ungroup()%>%  
  group_by(factorB)%>%mutate(meanB=mean(Y))%>%ungroup()%>%
  group_by(subj)%>%mutate(subj_mean=mean(Y))%>%
  ungroup()

data%>%arrange(subj)

## # A tibble: 32 x 11
##    factorA factorB subj      Y grand_mean meanAB meanAsubj meanBsubj meanA
##    <fct>   <fct>   <fct> <dbl>      <dbl>  <dbl>     <dbl>     <dbl> <dbl>
##  1 A1      B1      S1       31       24.1   27.5      30.5      30    26.9
##  2 A1      B2      S1       30       24.1   26.2      30.5      23.5  26.9
##  3 A2      B1      S1       29       24.1   21.2      23        30    21.2
##  4 A2      B2      S1       17       24.1   21.2      23        23.5  21.2
##  5 A1      B1      S2       33       24.1   27.5      30.5      26.5  26.9
##  6 A1      B2      S2       28       24.1   26.2      30.5      21    26.9
##  7 A2      B1      S2       20       24.1   21.2      17        26.5  21.2
##  8 A2      B2      S2       14       24.1   21.2      17        21    21.2
##  9 A1      B1      S3       28       24.1   27.5      28        23.5  26.9
## 10 A1      B2      S3       28       24.1   26.2      28        23    26.9
## # … with 22 more rows, and 2 more variables: meanB <dbl>, subj_mean <dbl>
…
